simulation/qsim/afinador_violao.msim.vcd
$comment
	File created using the following command:
		vcd file afinador_violao.msim.vcd -direction
$end
$date
	Tue Jul 02 11:51:50 2024
$end
$version
	ModelSim Version 10.1d
$end
$timescale
	1ps
$end
$scope module afinador_violao_vlg_vec_tst $end
$var reg 1 ! clock $end
$var reg 1 " entrada $end
$var wire 1 # afinado $end
$var wire 1 $ afrouxe_muito $end
$var wire 1 % afrouxe_pouco $end
$var wire 1 & aperte_muito $end
$var wire 1 ' aperte_pouco $end
$var wire 1 ( sampler $end
$scope module i1 $end
$var wire 1 ) gnd $end
$var wire 1 * vcc $end
$var wire 1 + unknown $end
$var tri1 1 , devclrn $end
$var tri1 1 - devpor $end
$var tri1 1 . devoe $end
$var wire 1 / inst1|internal_count[7]~31_combout $end
$var wire 1 0 inst1|internal_count[9]~35_combout $end
$var wire 1 1 inst1|internal_count[12]~41_combout $end
$var wire 1 2 inst1|internal_count[14]~45_combout $end
$var wire 1 3 inst2|LPM_COMPARE_component|auto_generated|aleb~1_combout $end
$var wire 1 4 inst7|LPM_COMPARE_component|auto_generated|ageb~0_combout $end
$var wire 1 5 inst|fstate.state2~q $end
$var wire 1 6 inst|fstate.state1~q $end
$var wire 1 7 inst|reg_fstate~1_combout $end
$var wire 1 8 inst|Selector0~0_combout $end
$var wire 1 9 clock~input_o $end
$var wire 1 : entrada~input_o $end
$var wire 1 ; inst|fstate.state2~clkctrl_outclk $end
$var wire 1 < clock~inputclkctrl_outclk $end
$var wire 1 = inst9|dffs[14]~feeder_combout $end
$var wire 1 > inst9|dffs[11]~feeder_combout $end
$var wire 1 ? inst9|dffs[10]~feeder_combout $end
$var wire 1 @ inst9|dffs[9]~feeder_combout $end
$var wire 1 A inst9|dffs[7]~feeder_combout $end
$var wire 1 B inst9|dffs[18]~feeder_combout $end
$var wire 1 C inst|fstate.state1~feeder_combout $end
$var wire 1 D afinado~output_o $end
$var wire 1 E afrouxe_pouco~output_o $end
$var wire 1 F afrouxe_muito~output_o $end
$var wire 1 G aperte_pouco~output_o $end
$var wire 1 H aperte_muito~output_o $end
$var wire 1 I inst1|internal_count[1]~19_combout $end
$var wire 1 J inst1|internal_count[1]~20 $end
$var wire 1 K inst1|internal_count[2]~21_combout $end
$var wire 1 L inst1|internal_count[2]~22 $end
$var wire 1 M inst1|internal_count[3]~23_combout $end
$var wire 1 N inst1|internal_count[3]~24 $end
$var wire 1 O inst1|internal_count[4]~25_combout $end
$var wire 1 P inst1|internal_count[4]~26 $end
$var wire 1 Q inst1|internal_count[5]~27_combout $end
$var wire 1 R inst1|internal_count[0]~57_combout $end
$var wire 1 S inst6|LPM_COMPARE_component|auto_generated|op_1~0_combout $end
$var wire 1 T inst6|LPM_COMPARE_component|auto_generated|op_1~1_combout $end
$var wire 1 U inst5|LPM_COMPARE_component|auto_generated|op_1~0_combout $end
$var wire 1 V inst1|internal_count[5]~28 $end
$var wire 1 W inst1|internal_count[6]~29_combout $end
$var wire 1 X inst1|internal_count[6]~30 $end
$var wire 1 Y inst1|internal_count[7]~32 $end
$var wire 1 Z inst1|internal_count[8]~33_combout $end
$var wire 1 [ inst1|internal_count[8]~34 $end
$var wire 1 \ inst1|internal_count[9]~36 $end
$var wire 1 ] inst1|internal_count[10]~37_combout $end
$var wire 1 ^ inst1|internal_count[10]~38 $end
$var wire 1 _ inst1|internal_count[11]~39_combout $end
$var wire 1 ` inst1|internal_count[11]~40 $end
$var wire 1 a inst1|internal_count[12]~42 $end
$var wire 1 b inst1|internal_count[13]~43_combout $end
$var wire 1 c inst1|internal_count[13]~44 $end
$var wire 1 d inst1|internal_count[14]~46 $end
$var wire 1 e inst1|internal_count[15]~47_combout $end
$var wire 1 f inst1|internal_count[15]~48 $end
$var wire 1 g inst1|internal_count[16]~50 $end
$var wire 1 h inst1|internal_count[17]~51_combout $end
$var wire 1 i inst1|internal_count[17]~52 $end
$var wire 1 j inst1|internal_count[18]~53_combout $end
$var wire 1 k inst1|internal_count[18]~54 $end
$var wire 1 l inst1|internal_count[19]~55_combout $end
$var wire 1 m inst9|dffs[19]~feeder_combout $end
$var wire 1 n inst2|LPM_COMPARE_component|auto_generated|aleb~4_combout $end
$var wire 1 o inst3~0_combout $end
$var wire 1 p inst9|dffs[13]~feeder_combout $end
$var wire 1 q inst1|internal_count[16]~49_combout $end
$var wire 1 r inst9|dffs[15]~feeder_combout $end
$var wire 1 s inst2|LPM_COMPARE_component|auto_generated|aleb~0_combout $end
$var wire 1 t inst9|dffs[6]~feeder_combout $end
$var wire 1 u inst2|LPM_COMPARE_component|auto_generated|aleb~2_combout $end
$var wire 1 v inst2|LPM_COMPARE_component|auto_generated|aleb~3_combout $end
$var wire 1 w inst7|LPM_COMPARE_component|auto_generated|ageb~1_combout $end
$var wire 1 x inst14~combout $end
$var wire 1 y inst2|LPM_COMPARE_component|auto_generated|aleb~5_combout $end
$var wire 1 z inst13~0_combout $end
$var wire 1 { inst2|LPM_COMPARE_component|auto_generated|aleb~6_combout $end
$var wire 1 | inst9|dffs [19] $end
$var wire 1 } inst9|dffs [18] $end
$var wire 1 ~ inst9|dffs [17] $end
$var wire 1 !! inst9|dffs [16] $end
$var wire 1 "! inst9|dffs [15] $end
$var wire 1 #! inst9|dffs [14] $end
$var wire 1 $! inst9|dffs [13] $end
$var wire 1 %! inst9|dffs [12] $end
$var wire 1 &! inst9|dffs [11] $end
$var wire 1 '! inst9|dffs [10] $end
$var wire 1 (! inst9|dffs [9] $end
$var wire 1 )! inst9|dffs [8] $end
$var wire 1 *! inst9|dffs [7] $end
$var wire 1 +! inst9|dffs [6] $end
$var wire 1 ,! inst9|dffs [5] $end
$var wire 1 -! inst9|dffs [4] $end
$var wire 1 .! inst9|dffs [3] $end
$var wire 1 /! inst9|dffs [2] $end
$var wire 1 0! inst9|dffs [1] $end
$var wire 1 1! inst9|dffs [0] $end
$var wire 1 2! inst1|internal_count [19] $end
$var wire 1 3! inst1|internal_count [18] $end
$var wire 1 4! inst1|internal_count [17] $end
$var wire 1 5! inst1|internal_count [16] $end
$var wire 1 6! inst1|internal_count [15] $end
$var wire 1 7! inst1|internal_count [14] $end
$var wire 1 8! inst1|internal_count [13] $end
$var wire 1 9! inst1|internal_count [12] $end
$var wire 1 :! inst1|internal_count [11] $end
$var wire 1 ;! inst1|internal_count [10] $end
$var wire 1 <! inst1|internal_count [9] $end
$var wire 1 =! inst1|internal_count [8] $end
$var wire 1 >! inst1|internal_count [7] $end
$var wire 1 ?! inst1|internal_count [6] $end
$var wire 1 @! inst1|internal_count [5] $end
$var wire 1 A! inst1|internal_count [4] $end
$var wire 1 B! inst1|internal_count [3] $end
$var wire 1 C! inst1|internal_count [2] $end
$var wire 1 D! inst1|internal_count [1] $end
$var wire 1 E! inst1|internal_count [0] $end
$upscope $end
$upscope $end
$enddefinitions $end
#0
$dumpvars
0!
0"
0#
0$
0%
1&
0'
x(
0)
1*
x+
1,
1-
1.
0/
00
01
02
13
04
05
06
07
08
09
0:
0;
0<
0=
0>
0?
0@
0A
0B
0C
0D
0E
0F
0G
1H
0I
0J
0K
1L
0M
0N
0O
1P
0Q
1R
0S
0T
1U
0V
0W
1X
0Y
0Z
1[
0\
0]
1^
0_
0`
1a
0b
0c
1d
0e
0f
1g
0h
0i
0j
1k
0l
0m
1n
1o
0p
0q
0r
1s
0t
1u
1v
0w
0x
1y
0z
1{
01!
00!
0/!
0.!
0-!
0,!
0+!
0*!
0)!
0(!
0'!
0&!
0%!
0$!
0#!
0"!
0!!
0~
0}
0|
0E!
0D!
0C!
0B!
0A!
0@!
0?!
0>!
0=!
0<!
0;!
0:!
09!
08!
07!
06!
05!
04!
03!
02!
$end
#5000
1!
19
1<
0(
#10000
0!
09
0<
1(
1E!
0R
1I
#15000
1!
19
1<
0(
#16667
1"
1:
1(
18
17
1C
#20000
0!
09
0<
0(
1D!
0E!
1R
#25000
1!
19
1<
1(
16
15
1;
07
10!
#30000
0!
09
0<
0(
1E!
0R
1J
0I
1K
#33333
0"
0:
1(
#35000
1!
19
1<
0(
05
0;
08
0C
#40000
0!
09
0<
1(
0D!
1C!
0E!
0J
0L
0K
1R
1L
1K
1M
0M
#45000
1!
19
1<
0(
06
#50000
1"
0!
1:
09
0<
1(
18
17
1C
1E!
0R
1I
#55000
1!
19
1<
0(
16
15
1;
07
00!
1/!
11!
1S
#60000
0!
09
0<
1(
1D!
0E!
1R
#65000
1!
19
1<
0(
05
0;
#66666
0"
0:
1(
08
0C
#70000
0!
09
0<
0(
1E!
0R
1J
0I
0L
0K
1M
#75000
1!
19
1<
1(
06
#80000
0!
09
0<
0(
0D!
0C!
1B!
0E!
0J
1L
1K
1N
0M
1R
0K
0N
1M
1O
0O
#83333
1"
1:
1(
18
17
1C
#85000
1!
19
1<
0(
16
15
1;
07
0/!
01!
1.!
#90000
0!
09
0<
1(
1E!
0R
1I
#95000
1!
19
1<
0(
05
0;
#99999
0"
0:
1(
08
0C
#100000
0!
09
0<
0(
1D!
0E!
1R
#105000
1!
19
1<
1(
06
#110000
0!
09
0<
0(
1E!
0R
1J
0I
1K
#115000
1!
19
1<
1(
#116666
1"
1:
0(
18
17
1C
#120000
0!
09
0<
1(
0D!
1C!
0E!
0J
0L
0K
1R
1L
1K
1N
0M
0N
1M
1O
0O
#125000
1!
19
1<
0(
16
15
1;
07
1/!
#130000
0!
09
0<
1(
1E!
0R
1I
#133332
0"
0:
0(
#135000
1!
19
1<
1(
05
0;
08
0C
#140000
0!
09
0<
0(
1D!
0E!
1R
#145000
1!
19
1<
1(
06
#149999
1"
1:
0(
18
17
1C
#150000
0!
09
0<
1(
1E!
0R
1J
0I
0L
0K
1N
0M
1O
#155000
1!
19
1<
0(
16
15
1;
07
10!
11!
#160000
0!
09
0<
1(
0D!
0C!
0B!
1A!
0E!
0J
1L
1K
0N
1M
0P
0O
1R
0K
0M
1P
1O
1Q
0Q
#165000
1!
19
1<
0(
05
0;
#166665
0"
0:
1(
08
0C
#170000
0!
09
0<
0(
1E!
0R
1I
#175000
1!
19
1<
1(
06
#180000
0!
09
0<
0(
1D!
0E!
1R
#183332
1"
1:
1(
18
17
1C
#185000
1!
19
1<
0(
16
15
1;
07
0/!
01!
0.!
1-!
0S
#190000
0!
09
0<
1(
1E!
0R
1J
0I
1K
#195000
1!
19
1<
0(
05
0;
#199998
0"
0:
1(
08
0C
#200000
0!
09
0<
0(
0D!
1C!
0E!
0J
0L
0K
1R
1L
1K
1M
0M
#205000
1!
19
1<
1(
06
#210000
0!
09
0<
0(
1E!
0R
1I
#215000
1!
19
1<
1(
#216665
1"
1:
0(
18
17
1C
#220000
0!
09
0<
1(
1D!
0E!
1R
#225000
1!
19
1<
0(
16
15
1;
07
1/!
1S
#230000
0!
09
0<
1(
1E!
0R
1J
0I
0L
0K
1M
#233331
0"
0:
0(
#235000
1!
19
1<
1(
05
0;
08
0C
#240000
0!
09
0<
0(
0D!
0C!
1B!
0E!
0J
1L
1K
1N
0M
1R
0K
0N
1M
0P
0O
1P
1O
1Q
0Q
#245000
1!
19
1<
1(
06
#249998
1"
1:
0(
18
17
1C
#250000
0!
09
0<
1(
1E!
0R
1I
#255000
1!
19
1<
0(
16
15
1;
07
00!
0/!
11!
1.!
#260000
0!
09
0<
1(
1D!
0E!
1R
#265000
1!
19
1<
0(
05
0;
#266664
0"
0:
1(
08
0C
#270000
0!
09
0<
0(
1E!
0R
1J
0I
1K
#275000
1!
19
1<
1(
06
#280000
0!
09
0<
0(
0D!
1C!
0E!
0J
0L
0K
1R
1L
1K
1N
0M
0N
1M
0P
0O
1P
1O
1Q
0Q
#283331
1"
1:
1(
18
17
1C
#285000
1!
19
1<
0(
16
15
1;
07
1/!
01!
14
#290000
0!
09
0<
1(
1E!
0R
1I
#295000
1!
19
1<
0(
05
0;
#299997
0"
0:
1(
08
0C
#300000
0!
09
0<
0(
1D!
0E!
1R
#305000
1!
19
1<
1(
06
#310000
0!
09
0<
0(
1E!
0R
1J
0I
0L
0K
1N
0M
0P
0O
1Q
#315000
1!
19
1<
1(
#316664
1"
1:
0(
18
17
1C
#320000
0!
09
0<
1(
0D!
0C!
0B!
0A!
1@!
0E!
0J
1L
1K
0N
1M
1P
1O
1V
0Q
1R
0K
0M
0O
0V
1Q
1W
0W
#325000
1!
19
1<
0(
16
15
1;
07
0/!
0.!
1,!
0-!
0S
04
0y
1w
1F
1$
0w
0{
1z
0F
0H
1G
0$
0&
1'
#330000
0!
09
0<
1(
1E!
0R
1I
#333330
0"
0:
0(
#335000
1!
19
1<
1(
05
0;
08
0C
#340000
0!
09
0<
0(
1D!
0E!
1R
#345000
1!
19
1<
1(
06
#349997
1"
1:
0(
18
17
1C
#350000
0!
09
0<
1(
1E!
0R
1J
0I
1K
#355000
1!
19
1<
0(
16
15
1;
07
10!
11!
1S
#360000
0!
09
0<
1(
0D!
1C!
0E!
0J
0L
0K
1R
1L
1K
1M
0M
#365000
1!
19
1<
0(
05
0;
#366663
0"
0:
1(
08
0C
#370000
0!
09
0<
0(
1E!
0R
1I
#375000
1!
19
1<
1(
06
#380000
0!
09
0<
0(
1D!
0E!
1R
#383330
1"
1:
1(
18
17
1C
#385000
1!
19
1<
0(
16
15
1;
07
1/!
01!
#390000
0!
09
0<
1(
1E!
0R
1J
0I
0L
0K
1M
#395000
1!
19
1<
0(
05
0;
#399996
0"
0:
1(
08
0C
#400000
0!
09
0<
0(
0D!
0C!
1B!
0E!
0J
1L
1K
1N
0M
1R
0K
0N
1M
1O
0O
#405000
1!
19
1<
1(
06
#410000
0!
09
0<
0(
1E!
0R
1I
#415000
1!
19
1<
1(
#416663
1"
1:
0(
18
17
1C
#420000
0!
09
0<
1(
1D!
0E!
1R
#425000
1!
19
1<
0(
16
15
1;
07
0/!
1.!
0U
0o
0z
1D
0G
1#
0'
#430000
0!
09
0<
1(
1E!
0R
1J
0I
1K
#433329
0"
0:
0(
#435000
1!
19
1<
1(
05
0;
08
0C
#440000
0!
09
0<
0(
0D!
1C!
0E!
0J
0L
0K
1R
1L
1K
1N
0M
0N
1M
1O
0O
#445000
1!
19
1<
1(
06
#449996
1"
1:
0(
18
17
1C
#450000
0!
09
0<
1(
1E!
0R
1I
#455000
1!
19
1<
0(
16
15
1;
07
00!
1/!
11!
#460000
0!
09
0<
1(
1D!
0E!
1R
#465000
1!
19
1<
0(
05
0;
#466662
0"
0:
1(
08
0C
#470000
0!
09
0<
0(
1E!
0R
1J
0I
0L
0K
1N
0M
1O
#475000
1!
19
1<
1(
06
#480000
0!
09
0<
0(
0D!
0C!
0B!
1A!
0E!
0J
1L
1K
0N
1M
0P
0O
1R
0K
0M
1P
1O
1V
0Q
0V
1Q
1W
0W
#483329
1"
1:
1(
18
17
1C
#485000
1!
19
1<
0(
16
15
1;
07
0/!
01!
0.!
1-!
0S
1T
0T
1o
1x
0o
0D
1E
0#
1%
0x
1D
0E
1#
0%
#490000
0!
09
0<
1(
1E!
0R
1I
#499995
0"
0:
0(
#516662
1"
1:
1(
#533328
0"
0:
0(
#549995
1"
1:
1(
#566661
0"
0:
0(
#583328
1"
1:
1(
#599994
0"
0:
0(
#616661
1"
1:
1(
#633327
0"
0:
0(
#649994
1"
1:
1(
#666660
0"
0:
0(
#683327
1"
1:
1(
#699993
0"
0:
0(
#716660
1"
1:
1(
#733326
0"
0:
0(
#749993
1"
1:
1(
#766659
0"
0:
0(
#783326
1"
1:
1(
#799992
0"
0:
0(
#816659
1"
1:
1(
#833325
0"
0:
0(
#849992
1"
1:
1(
#866658
0"
0:
0(
#883325
1"
1:
1(
#899991
0"
0:
0(
#916658
1"
1:
1(
#933324
0"
0:
0(
#949991
1"
1:
1(
#966657
0"
0:
0(
#983324
1"
1:
1(
#995000
1!
19
1<
0(
05
0;
#999990
0"
0:
1(
08
0C
