simulation/qsim/afinador_violao.msim.vcd
$comment
	File created using the following command:
		vcd file afinador_violao.msim.vcd -direction
$end
$date
	Thu Jul 04 18:22:30 2024
$end
$version
	ModelSim Version 10.1d
$end
$timescale
	1ps
$end
$scope module oscilador_vlg_vec_tst $end
$var reg 1 ! afinar $end
$var reg 1 " clock $end
$var reg 1 # enable $end
$var reg 1 $ up_down $end
$var wire 1 % counter0_saida [19] $end
$var wire 1 & counter0_saida [18] $end
$var wire 1 ' counter0_saida [17] $end
$var wire 1 ( counter0_saida [16] $end
$var wire 1 ) counter0_saida [15] $end
$var wire 1 * counter0_saida [14] $end
$var wire 1 + counter0_saida [13] $end
$var wire 1 , counter0_saida [12] $end
$var wire 1 - counter0_saida [11] $end
$var wire 1 . counter0_saida [10] $end
$var wire 1 / counter0_saida [9] $end
$var wire 1 0 counter0_saida [8] $end
$var wire 1 1 counter0_saida [7] $end
$var wire 1 2 counter0_saida [6] $end
$var wire 1 3 counter0_saida [5] $end
$var wire 1 4 counter0_saida [4] $end
$var wire 1 5 counter0_saida [3] $end
$var wire 1 6 counter0_saida [2] $end
$var wire 1 7 counter0_saida [1] $end
$var wire 1 8 counter0_saida [0] $end
$var wire 1 9 counter2_saida [19] $end
$var wire 1 : counter2_saida [18] $end
$var wire 1 ; counter2_saida [17] $end
$var wire 1 < counter2_saida [16] $end
$var wire 1 = counter2_saida [15] $end
$var wire 1 > counter2_saida [14] $end
$var wire 1 ? counter2_saida [13] $end
$var wire 1 @ counter2_saida [12] $end
$var wire 1 A counter2_saida [11] $end
$var wire 1 B counter2_saida [10] $end
$var wire 1 C counter2_saida [9] $end
$var wire 1 D counter2_saida [8] $end
$var wire 1 E counter2_saida [7] $end
$var wire 1 F counter2_saida [6] $end
$var wire 1 G counter2_saida [5] $end
$var wire 1 H counter2_saida [4] $end
$var wire 1 I counter2_saida [3] $end
$var wire 1 J counter2_saida [2] $end
$var wire 1 K counter2_saida [1] $end
$var wire 1 L counter2_saida [0] $end
$var wire 1 M ddd_q $end
$var wire 1 N saida $end
$var wire 1 O sampler $end
$scope module i1 $end
$var wire 1 P gnd $end
$var wire 1 Q vcc $end
$var wire 1 R unknown $end
$var tri1 1 S devclrn $end
$var tri1 1 T devpor $end
$var tri1 1 U devoe $end
$var wire 1 V inst5|LPM_COMPARE_component|auto_generated|aneb_result_wire[0]~0_combout $end
$var wire 1 W inst5|LPM_COMPARE_component|auto_generated|aneb_result_wire[0]~1_combout $end
$var wire 1 X inst5|LPM_COMPARE_component|auto_generated|aneb_result_wire[0]~2_combout $end
$var wire 1 Y inst5|LPM_COMPARE_component|auto_generated|aneb_result_wire[0]~3_combout $end
$var wire 1 Z inst5|LPM_COMPARE_component|auto_generated|aneb_result_wire[0]~4_combout $end
$var wire 1 [ inst5|LPM_COMPARE_component|auto_generated|aneb_result_wire[0]~6_combout $end
$var wire 1 \ saida~output_o $end
$var wire 1 ] ddd_q~output_o $end
$var wire 1 ^ counter0_saida[19]~output_o $end
$var wire 1 _ counter0_saida[18]~output_o $end
$var wire 1 ` counter0_saida[17]~output_o $end
$var wire 1 a counter0_saida[16]~output_o $end
$var wire 1 b counter0_saida[15]~output_o $end
$var wire 1 c counter0_saida[14]~output_o $end
$var wire 1 d counter0_saida[13]~output_o $end
$var wire 1 e counter0_saida[12]~output_o $end
$var wire 1 f counter0_saida[11]~output_o $end
$var wire 1 g counter0_saida[10]~output_o $end
$var wire 1 h counter0_saida[9]~output_o $end
$var wire 1 i counter0_saida[8]~output_o $end
$var wire 1 j counter0_saida[7]~output_o $end
$var wire 1 k counter0_saida[6]~output_o $end
$var wire 1 l counter0_saida[5]~output_o $end
$var wire 1 m counter0_saida[4]~output_o $end
$var wire 1 n counter0_saida[3]~output_o $end
$var wire 1 o counter0_saida[2]~output_o $end
$var wire 1 p counter0_saida[1]~output_o $end
$var wire 1 q counter0_saida[0]~output_o $end
$var wire 1 r counter2_saida[19]~output_o $end
$var wire 1 s counter2_saida[18]~output_o $end
$var wire 1 t counter2_saida[17]~output_o $end
$var wire 1 u counter2_saida[16]~output_o $end
$var wire 1 v counter2_saida[15]~output_o $end
$var wire 1 w counter2_saida[14]~output_o $end
$var wire 1 x counter2_saida[13]~output_o $end
$var wire 1 y counter2_saida[12]~output_o $end
$var wire 1 z counter2_saida[11]~output_o $end
$var wire 1 { counter2_saida[10]~output_o $end
$var wire 1 | counter2_saida[9]~output_o $end
$var wire 1 } counter2_saida[8]~output_o $end
$var wire 1 ~ counter2_saida[7]~output_o $end
$var wire 1 !! counter2_saida[6]~output_o $end
$var wire 1 "! counter2_saida[5]~output_o $end
$var wire 1 #! counter2_saida[4]~output_o $end
$var wire 1 $! counter2_saida[3]~output_o $end
$var wire 1 %! counter2_saida[2]~output_o $end
$var wire 1 &! counter2_saida[1]~output_o $end
$var wire 1 '! counter2_saida[0]~output_o $end
$var wire 1 (! up_down~input_o $end
$var wire 1 )! inst|LPM_COUNTER_component|auto_generated|counter_comb_bita0~COUT $end
$var wire 1 *! inst|LPM_COUNTER_component|auto_generated|counter_comb_bita1~combout $end
$var wire 1 +! afinar~input_o $end
$var wire 1 ,! enable~input_o $end
$var wire 1 -! inst|LPM_COUNTER_component|auto_generated|_~0_combout $end
$var wire 1 .! inst6|LPM_COUNTER_component|auto_generated|counter_comb_bita0~combout $end
$var wire 1 /! ~GND~combout $end
$var wire 1 0! inst6|LPM_COUNTER_component|auto_generated|counter_comb_bita0~COUT $end
$var wire 1 1! inst6|LPM_COUNTER_component|auto_generated|counter_comb_bita1~combout $end
$var wire 1 2! inst5|LPM_COMPARE_component|auto_generated|aneb_result_wire[0]~11_combout $end
$var wire 1 3! inst|LPM_COUNTER_component|auto_generated|counter_comb_bita1~COUT $end
$var wire 1 4! inst|LPM_COUNTER_component|auto_generated|counter_comb_bita2~combout $end
$var wire 1 5! inst|LPM_COUNTER_component|auto_generated|counter_comb_bita2~COUT $end
$var wire 1 6! inst|LPM_COUNTER_component|auto_generated|counter_comb_bita3~combout $end
$var wire 1 7! inst6|LPM_COUNTER_component|auto_generated|counter_comb_bita1~COUT $end
$var wire 1 8! inst6|LPM_COUNTER_component|auto_generated|counter_comb_bita2~combout $end
$var wire 1 9! inst6|LPM_COUNTER_component|auto_generated|counter_comb_bita2~COUT $end
$var wire 1 :! inst6|LPM_COUNTER_component|auto_generated|counter_comb_bita3~combout $end
$var wire 1 ;! inst5|LPM_COMPARE_component|auto_generated|aneb_result_wire[0]~10_combout $end
$var wire 1 <! inst|LPM_COUNTER_component|auto_generated|counter_comb_bita3~COUT $end
$var wire 1 =! inst|LPM_COUNTER_component|auto_generated|counter_comb_bita4~combout $end
$var wire 1 >! inst|LPM_COUNTER_component|auto_generated|counter_comb_bita4~COUT $end
$var wire 1 ?! inst|LPM_COUNTER_component|auto_generated|counter_comb_bita5~COUT $end
$var wire 1 @! inst|LPM_COUNTER_component|auto_generated|counter_comb_bita6~combout $end
$var wire 1 A! inst|LPM_COUNTER_component|auto_generated|counter_comb_bita6~COUT $end
$var wire 1 B! inst|LPM_COUNTER_component|auto_generated|counter_comb_bita7~COUT $end
$var wire 1 C! inst|LPM_COUNTER_component|auto_generated|counter_comb_bita8~combout $end
$var wire 1 D! inst|LPM_COUNTER_component|auto_generated|counter_comb_bita8~COUT $end
$var wire 1 E! inst|LPM_COUNTER_component|auto_generated|counter_comb_bita9~COUT $end
$var wire 1 F! inst|LPM_COUNTER_component|auto_generated|counter_comb_bita10~combout $end
$var wire 1 G! inst6|LPM_COUNTER_component|auto_generated|counter_comb_bita3~COUT $end
$var wire 1 H! inst6|LPM_COUNTER_component|auto_generated|counter_comb_bita4~combout $end
$var wire 1 I! inst6|LPM_COUNTER_component|auto_generated|counter_comb_bita4~COUT $end
$var wire 1 J! inst6|LPM_COUNTER_component|auto_generated|counter_comb_bita5~COUT $end
$var wire 1 K! inst6|LPM_COUNTER_component|auto_generated|counter_comb_bita6~combout $end
$var wire 1 L! inst6|LPM_COUNTER_component|auto_generated|counter_comb_bita6~COUT $end
$var wire 1 M! inst6|LPM_COUNTER_component|auto_generated|counter_comb_bita7~COUT $end
$var wire 1 N! inst6|LPM_COUNTER_component|auto_generated|counter_comb_bita8~combout $end
$var wire 1 O! inst6|LPM_COUNTER_component|auto_generated|counter_comb_bita8~COUT $end
$var wire 1 P! inst6|LPM_COUNTER_component|auto_generated|counter_comb_bita9~COUT $end
$var wire 1 Q! inst6|LPM_COUNTER_component|auto_generated|counter_comb_bita10~combout $end
$var wire 1 R! inst|LPM_COUNTER_component|auto_generated|counter_comb_bita10~COUT $end
$var wire 1 S! inst|LPM_COUNTER_component|auto_generated|counter_comb_bita11~combout $end
$var wire 1 T! inst5|LPM_COMPARE_component|auto_generated|aneb_result_wire[0]~5_combout $end
$var wire 1 U! inst6|LPM_COUNTER_component|auto_generated|counter_comb_bita5~combout $end
$var wire 1 V! inst5|LPM_COMPARE_component|auto_generated|aneb_result_wire[0]~8_combout $end
$var wire 1 W! inst6|LPM_COUNTER_component|auto_generated|counter_comb_bita7~combout $end
$var wire 1 X! inst5|LPM_COMPARE_component|auto_generated|aneb_result_wire[0]~7_combout $end
$var wire 1 Y! inst5|LPM_COMPARE_component|auto_generated|aneb_result_wire[0]~9_combout $end
$var wire 1 Z! inst5|LPM_COMPARE_component|auto_generated|aneb_result_wire[0]~12_combout $end
$var wire 1 [! inst1~q $end
$var wire 1 \! inst3~0_combout $end
$var wire 1 ]! inst3~q $end
$var wire 1 ^! clock~input_o $end
$var wire 1 _! clock~inputclkctrl_outclk $end
$var wire 1 `! inst|LPM_COUNTER_component|auto_generated|counter_comb_bita11~COUT $end
$var wire 1 a! inst|LPM_COUNTER_component|auto_generated|counter_comb_bita12~combout $end
$var wire 1 b! inst|LPM_COUNTER_component|auto_generated|counter_comb_bita12~COUT $end
$var wire 1 c! inst|LPM_COUNTER_component|auto_generated|counter_comb_bita13~COUT $end
$var wire 1 d! inst|LPM_COUNTER_component|auto_generated|counter_comb_bita14~combout $end
$var wire 1 e! inst|LPM_COUNTER_component|auto_generated|counter_comb_bita14~COUT $end
$var wire 1 f! inst|LPM_COUNTER_component|auto_generated|counter_comb_bita15~COUT $end
$var wire 1 g! inst|LPM_COUNTER_component|auto_generated|counter_comb_bita16~COUT $end
$var wire 1 h! inst|LPM_COUNTER_component|auto_generated|counter_comb_bita17~combout $end
$var wire 1 i! inst|LPM_COUNTER_component|auto_generated|counter_comb_bita17~COUT $end
$var wire 1 j! inst|LPM_COUNTER_component|auto_generated|counter_comb_bita18~combout $end
$var wire 1 k! inst|LPM_COUNTER_component|auto_generated|counter_comb_bita18~COUT $end
$var wire 1 l! inst|LPM_COUNTER_component|auto_generated|counter_comb_bita19~combout $end
$var wire 1 m! inst|LPM_COUNTER_component|auto_generated|counter_comb_bita16~combout $end
$var wire 1 n! inst|LPM_COUNTER_component|auto_generated|counter_comb_bita15~combout $end
$var wire 1 o! inst|LPM_COUNTER_component|auto_generated|counter_comb_bita13~combout $end
$var wire 1 p! inst|LPM_COUNTER_component|auto_generated|counter_comb_bita9~combout $end
$var wire 1 q! inst|LPM_COUNTER_component|auto_generated|counter_comb_bita7~combout $end
$var wire 1 r! inst|LPM_COUNTER_component|auto_generated|counter_comb_bita5~combout $end
$var wire 1 s! inst|LPM_COUNTER_component|auto_generated|counter_comb_bita0~combout $end
$var wire 1 t! inst6|LPM_COUNTER_component|auto_generated|counter_comb_bita10~COUT $end
$var wire 1 u! inst6|LPM_COUNTER_component|auto_generated|counter_comb_bita11~combout $end
$var wire 1 v! inst6|LPM_COUNTER_component|auto_generated|counter_comb_bita11~COUT $end
$var wire 1 w! inst6|LPM_COUNTER_component|auto_generated|counter_comb_bita12~combout $end
$var wire 1 x! inst6|LPM_COUNTER_component|auto_generated|counter_comb_bita12~COUT $end
$var wire 1 y! inst6|LPM_COUNTER_component|auto_generated|counter_comb_bita13~COUT $end
$var wire 1 z! inst6|LPM_COUNTER_component|auto_generated|counter_comb_bita14~combout $end
$var wire 1 {! inst6|LPM_COUNTER_component|auto_generated|counter_comb_bita14~COUT $end
$var wire 1 |! inst6|LPM_COUNTER_component|auto_generated|counter_comb_bita15~COUT $end
$var wire 1 }! inst6|LPM_COUNTER_component|auto_generated|counter_comb_bita16~COUT $end
$var wire 1 ~! inst6|LPM_COUNTER_component|auto_generated|counter_comb_bita17~combout $end
$var wire 1 !" inst6|LPM_COUNTER_component|auto_generated|counter_comb_bita17~COUT $end
$var wire 1 "" inst6|LPM_COUNTER_component|auto_generated|counter_comb_bita18~combout $end
$var wire 1 #" inst6|LPM_COUNTER_component|auto_generated|counter_comb_bita18~COUT $end
$var wire 1 $" inst6|LPM_COUNTER_component|auto_generated|counter_comb_bita19~combout $end
$var wire 1 %" inst6|LPM_COUNTER_component|auto_generated|counter_comb_bita16~combout $end
$var wire 1 &" inst6|LPM_COUNTER_component|auto_generated|counter_comb_bita15~combout $end
$var wire 1 '" inst6|LPM_COUNTER_component|auto_generated|counter_comb_bita13~combout $end
$var wire 1 (" inst6|LPM_COUNTER_component|auto_generated|counter_comb_bita9~combout $end
$var wire 1 )" inst|LPM_COUNTER_component|auto_generated|counter_reg_bit [19] $end
$var wire 1 *" inst|LPM_COUNTER_component|auto_generated|counter_reg_bit [18] $end
$var wire 1 +" inst|LPM_COUNTER_component|auto_generated|counter_reg_bit [17] $end
$var wire 1 ," inst|LPM_COUNTER_component|auto_generated|counter_reg_bit [16] $end
$var wire 1 -" inst|LPM_COUNTER_component|auto_generated|counter_reg_bit [15] $end
$var wire 1 ." inst|LPM_COUNTER_component|auto_generated|counter_reg_bit [14] $end
$var wire 1 /" inst|LPM_COUNTER_component|auto_generated|counter_reg_bit [13] $end
$var wire 1 0" inst|LPM_COUNTER_component|auto_generated|counter_reg_bit [12] $end
$var wire 1 1" inst|LPM_COUNTER_component|auto_generated|counter_reg_bit [11] $end
$var wire 1 2" inst|LPM_COUNTER_component|auto_generated|counter_reg_bit [10] $end
$var wire 1 3" inst|LPM_COUNTER_component|auto_generated|counter_reg_bit [9] $end
$var wire 1 4" inst|LPM_COUNTER_component|auto_generated|counter_reg_bit [8] $end
$var wire 1 5" inst|LPM_COUNTER_component|auto_generated|counter_reg_bit [7] $end
$var wire 1 6" inst|LPM_COUNTER_component|auto_generated|counter_reg_bit [6] $end
$var wire 1 7" inst|LPM_COUNTER_component|auto_generated|counter_reg_bit [5] $end
$var wire 1 8" inst|LPM_COUNTER_component|auto_generated|counter_reg_bit [4] $end
$var wire 1 9" inst|LPM_COUNTER_component|auto_generated|counter_reg_bit [3] $end
$var wire 1 :" inst|LPM_COUNTER_component|auto_generated|counter_reg_bit [2] $end
$var wire 1 ;" inst|LPM_COUNTER_component|auto_generated|counter_reg_bit [1] $end
$var wire 1 <" inst|LPM_COUNTER_component|auto_generated|counter_reg_bit [0] $end
$var wire 1 =" inst6|LPM_COUNTER_component|auto_generated|counter_reg_bit [19] $end
$var wire 1 >" inst6|LPM_COUNTER_component|auto_generated|counter_reg_bit [18] $end
$var wire 1 ?" inst6|LPM_COUNTER_component|auto_generated|counter_reg_bit [17] $end
$var wire 1 @" inst6|LPM_COUNTER_component|auto_generated|counter_reg_bit [16] $end
$var wire 1 A" inst6|LPM_COUNTER_component|auto_generated|counter_reg_bit [15] $end
$var wire 1 B" inst6|LPM_COUNTER_component|auto_generated|counter_reg_bit [14] $end
$var wire 1 C" inst6|LPM_COUNTER_component|auto_generated|counter_reg_bit [13] $end
$var wire 1 D" inst6|LPM_COUNTER_component|auto_generated|counter_reg_bit [12] $end
$var wire 1 E" inst6|LPM_COUNTER_component|auto_generated|counter_reg_bit [11] $end
$var wire 1 F" inst6|LPM_COUNTER_component|auto_generated|counter_reg_bit [10] $end
$var wire 1 G" inst6|LPM_COUNTER_component|auto_generated|counter_reg_bit [9] $end
$var wire 1 H" inst6|LPM_COUNTER_component|auto_generated|counter_reg_bit [8] $end
$var wire 1 I" inst6|LPM_COUNTER_component|auto_generated|counter_reg_bit [7] $end
$var wire 1 J" inst6|LPM_COUNTER_component|auto_generated|counter_reg_bit [6] $end
$var wire 1 K" inst6|LPM_COUNTER_component|auto_generated|counter_reg_bit [5] $end
$var wire 1 L" inst6|LPM_COUNTER_component|auto_generated|counter_reg_bit [4] $end
$var wire 1 M" inst6|LPM_COUNTER_component|auto_generated|counter_reg_bit [3] $end
$var wire 1 N" inst6|LPM_COUNTER_component|auto_generated|counter_reg_bit [2] $end
$var wire 1 O" inst6|LPM_COUNTER_component|auto_generated|counter_reg_bit [1] $end
$var wire 1 P" inst6|LPM_COUNTER_component|auto_generated|counter_reg_bit [0] $end
$upscope $end
$upscope $end
$enddefinitions $end
#0
$dumpvars
0!
0"
1#
1$
xt!
xu!
xv!
xw!
xx!
xy!
xz!
x{!
x|!
x}!
x~!
x!"
x""
x#"
x$"
x%"
x&"
x'"
x("
0<"
0;"
0:"
09"
08"
07"
06"
05"
04"
03"
02"
01"
00"
0/"
0."
0-"
0,"
0+"
0*"
0)"
0P"
0O"
0N"
0M"
0L"
0K"
0J"
0I"
0H"
0G"
0F"
0E"
0D"
0C"
0B"
0A"
0@"
0?"
0>"
0="
x8
x7
x6
x5
x4
x3
x2
x1
x0
x/
x.
x-
x,
x+
x*
x)
x(
x'
x&
x%
xL
xK
xJ
xI
xH
xG
xF
xE
xD
xC
xB
xA
x@
x?
x>
x=
x<
x;
x:
x9
xM
xN
xO
0P
1Q
xR
1S
1T
1U
xV
xW
xX
xY
xZ
x[
x\
x]
x^
x_
x`
xa
xb
xc
xd
xe
xf
xg
xh
xi
xj
xk
xl
xm
xn
xo
xp
xq
xr
xs
xt
xu
xv
xw
xx
xy
xz
x{
x|
x}
x~
x!!
x"!
x#!
x$!
x%!
x&!
x'!
1(!
x)!
x*!
0+!
1,!
x-!
x.!
0/!
x0!
x1!
x2!
x3!
x4!
x5!
x6!
x7!
x8!
x9!
x:!
x;!
x<!
x=!
x>!
x?!
x@!
xA!
xB!
xC!
xD!
xE!
xF!
xG!
xH!
xI!
xJ!
xK!
xL!
xM!
xN!
xO!
xP!
xQ!
xR!
xS!
xT!
xU!
xV!
xW!
xX!
xY!
xZ!
0[!
1\!
0]!
0^!
x_!
x`!
xa!
xb!
xc!
xd!
xe!
xf!
xg!
xh!
xi!
xj!
xk!
xl!
xm!
xn!
xo!
xp!
xq!
xr!
xs!
$end
#50
1"
0O
#100
0"
1O
#150
1"
0O
#173
0_!
#200
0"
1O
#250
1"
0O
#300
0"
1O
#350
1"
0O
#400
0"
1O
#450
1"
0O
#500
0"
1O
#550
1"
0O
#600
0"
1O
#650
1"
0O
#686
0V!
#700
0"
1O
#750
1"
0O
#762
0t!
#765
0#"
#767
00!
#774
0x!
#776
0{!
#782
0}!
#784
0O!
#785
0L!
0I!
09!
#800
0"
1O
#816
1.!
#819
1s!
#841
0[
#850
1"
0O
#857
0Y
#899
1v!
#900
1G!
17!
0"
1O
#910
1y!
#911
1|!
#915
1!"
02!
#918
1P!
#919
1M!
1J!
#950
1"
0O
#969
0T!
#1000
0"
1O
#1001
0V
#1003
0X
#1050
1"
0O
#1053
0W
#1059
0X!
#1100
0"
1O
#1110
0;!
#1150
1"
0O
#1200
0"
1O
#1250
1"
0O
#1274
0u!
#1277
0$"
#1279
01!
#1286
0'"
#1288
0&"
#1294
0~!
#1296
0("
#1297
0:!
0U!
0W!
#1300
0"
1O
#1350
1"
0O
#1400
0"
1O
#1411
0w!
#1412
08!
0H!
#1422
0z!
#1423
0%"
#1427
0""
#1430
0Q!
#1431
0K!
0N!
#1450
1"
0O
#1500
0"
1O
#1508
0Z
#1550
1"
0O
#1600
0"
1O
#1650
1"
0O
#1700
0"
1O
#1750
1"
0O
#1800
0"
1O
#1850
1"
0O
#1892
0Y!
#1900
0"
1O
#1950
1"
0O
#2000
0"
1O
#2050
1"
0O
#2100
0"
1O
#2150
1"
0O
#2200
0"
1O
#2250
1"
0O
#2275
1Z!
#2300
0"
1O
#2350
1"
0O
#2400
0"
1O
#2450
1"
0O
#2500
0"
1O
#2510
x[!
#2550
1"
0O
#2600
0"
1O
#2650
1"
0O
#2700
0"
1O
#2750
1"
0O
#2800
0"
1O
#2850
1"
0O
#2900
0"
1O
#2950
1"
0O
#3000
0"
1O
#3050
1"
0O
#3100
0"
1O
#3150
1"
0O
#3200
0"
1O
#3250
1"
0O
#3300
0"
1O
#3350
1"
0O
#3400
0"
1O
#3450
1"
0O
#3500
0"
1O
#3550
1"
0O
#3600
0"
1O
#3650
1"
0O
#3700
0"
1O
#3750
1"
0O
#3800
0"
1O
#3830
0r
09
#3850
1"
0O
#3864
0g!
#3898
1-!
#3900
0"
1O
#3950
1"
0O
#4000
0"
1O
#4001
1f!
#4002
1c!
#4021
0y
0@
#4050
1"
0O
#4100
0"
1O
#4150
1"
0O
#4155
05!
#4156
0>!
#4157
0A!
#4159
0D!
#4176
0b!
0R!
#4177
0k!
0e!
#4200
0"
1O
#4239
0%!
0J
#4250
1"
0O
#4283
13!
#4285
1<!
#4294
0}
0D
#4300
0"
1O
#4304
0)!
0z
0A
#4306
1`!
#4307
1i!
#4329
0|
0C
#4342
0$!
0I
#4350
1"
0O
#4376
0h!
#4385
0~
0E
#4400
0"
1O
#4444
1?!
#4446
1B!
#4447
1E!
#4450
1"
0O
#4474
0^
0%
#4500
0"
1O
#4503
0u
0<
#4513
0m!
#4514
0d!
#4527
0{
0B
#4529
0e
0,
#4550
1"
0O
#4557
0q
08
#4583
0j
01
#4600
0"
1O
#4607
0b
0)
#4614
0k
02
#4629
0t
0;
#4631
0n
05
#4632
0c
0*
#4635
0p
07
#4650
1"
0O
#4654
0s
0:
#4662
0a
0(
#4664
0d
0+
#4667
06!
#4668
0r!
#4669
0h
0q!
0/
#4671
0p!
#4676
0'!
0i
0L
00
#4680
0f
0-
#4688
0S!
0o!
#4689
0n!
0l!
#4700
0"
1O
#4703
0g
0.
#4720
0\
0N
#4722
0x
0?
#4748
0m
04
#4750
1"
0O
#4766
0v
0=
#4795
04!
#4797
0=!
#4800
0"
1O
#4816
0*!
#4818
0a!
#4819
0j!
#4829
0w
0>
#4850
1"
0O
#4853
0`
0'
#4868
0&!
0K
#4900
0"
1O
#4933
0_
0&
#4935
0l
03
#4950
1"
0O
#4956
0@!
#4958
0C!
#4959
0!!
0F!
0F
#4986
0"!
0G
#5000
0"
1O
#5050
1"
0O
#5100
0"
1O
#5150
1"
0O
#5200
0"
1O
#5250
1"
0O
#5300
0"
1O
#5350
1"
0O
#5400
0"
1O
#5450
1"
0O
#5500
0"
1O
#5550
1"
0O
#5600
0"
1O
#5650
1"
0O
#5700
0"
1O
#5750
1"
0O
#5800
0"
1O
#5850
1"
0O
#5900
0"
1O
#5950
1"
0O
#5977
0#!
0H
#6000
0"
1O
#6050
1"
0O
#6100
0"
1O
#6150
1"
0O
#6200
0"
1O
#6250
1"
0O
#6300
0"
1O
#6350
1"
0O
#6400
0"
1O
#6450
1"
0O
#6500
0"
1O
#6550
1"
0O
#6558
0o
06
#6600
0"
1O
#6650
1"
0O
#6700
0"
1O
#6750
1"
0O
#6800
0"
1O
#6850
1"
0O
#6900
0"
1O
#6950
1"
0O
#7000
0"
1O
#7050
1"
0O
#7100
0"
1O
#7150
1"
0O
#7200
0"
1O
#7250
1"
0O
#7300
0"
1O
#7350
1"
0O
#7400
0"
1O
#7450
1"
0O
#7500
0"
1O
#7550
1"
0O
#7600
0"
1O
#7650
1"
0O
#7700
0"
1O
#7750
1"
0O
#7800
0"
1O
#7850
1"
0O
#7900
0"
1O
#7950
1"
0O
#8000
0"
1O
#8050
1"
0O
#8100
0"
1O
#8150
1"
0O
#8200
0"
1O
#8250
1"
0O
#8300
0"
1O
#8350
1"
0O
#8400
0"
1O
#8450
1"
0O
#8500
0"
1O
#8550
1"
0O
#8600
0"
1O
#8650
1"
0O
#8700
0"
1O
#8750
1"
0O
#8800
0"
1O
#8850
1"
0O
#8900
0"
1O
#8950
1"
0O
#9000
0"
1O
#9050
1"
0O
#9100
0"
1O
#9150
1"
0O
#9200
0"
1O
#9250
1"
0O
#9300
0"
1O
#9350
1"
0O
#9400
0"
1O
#9450
1"
0O
#9500
0"
1O
#9550
1"
0O
#9600
0"
1O
#9650
1"
0O
#9700
0"
1O
#9750
1"
0O
#9800
0"
1O
#9850
1"
0O
#9900
0"
1O
#9950
1"
0O
#10000
0$
0"
1O
#10050
1"
0O
#10100
0"
1O
#10150
1"
0O
#10200
0"
1O
#10250
1"
0O
#10300
0"
1O
#10350
1"
0O
#10400
0"
1O
#10450
1"
0O
#10500
0"
1O
#10550
1"
0O
#10600
0"
1O
#10650
1"
0O
#10700
0"
1O
#10750
1"
0O
#10800
0"
1O
#10816
0(!
#10850
1"
0O
#10900
0"
1O
#10950
1"
0O
#11000
0"
1O
#11050
1"
0O
#11100
0"
1O
#11150
1"
0O
#11200
0"
1O
#11250
1"
0O
#11300
0"
1O
#11350
1"
0O
#11400
0"
1O
#11450
1"
0O
#11500
0"
1O
#11550
1"
0O
#11600
0"
1O
#11650
1"
0O
#11700
0"
1O
#11750
1"
0O
#11800
0"
1O
#11850
1"
0O
#11900
0"
1O
#11950
1"
0O
#12000
0"
1O
#12050
1"
0O
#12100
0"
1O
#12150
1"
0O
#12200
0"
1O
#12250
1"
0O
#12300
0"
1O
#12350
1"
0O
#12400
0"
1O
#12450
1"
0O
#12500
0"
1O
#12550
1"
0O
#12600
0"
1O
#12650
1"
0O
#12700
0"
1O
#12750
1"
0O
#12800
0"
1O
#12850
1"
0O
#12900
0"
1O
#12950
1"
0O
#13000
0"
1O
#13050
1"
0O
#13100
0"
1O
#13150
1"
0O
#13200
0"
1O
#13250
1"
0O
#13300
0"
1O
#13350
1"
0O
#13400
0"
1O
#13450
1"
0O
#13500
0"
1O
#13550
1"
0O
#13600
0"
1O
#13650
1"
0O
#13700
0"
1O
#13750
1"
0O
#13800
0"
1O
#13850
1"
0O
#13900
0"
1O
#13950
1"
0O
#14000
0"
1O
#14050
1"
0O
#14100
0"
1O
#14150
1"
0O
#14200
0"
1O
#14250
1"
0O
#14300
0"
1O
#14350
1"
0O
#14400
0"
1O
#14450
1"
0O
#14500
0"
1O
#14550
1"
0O
#14600
0"
1O
#14650
1"
0O
#14700
0"
1O
#14750
1"
0O
#14800
0"
1O
#14850
1"
0O
#14900
0"
1O
#14950
1"
0O
#15000
0"
1O
#15050
1"
0O
#15100
0"
1O
#15150
1"
0O
#15200
0"
1O
#15250
1"
0O
#15300
0"
1O
#15350
1"
0O
#15400
0"
1O
#15450
1"
0O
#15482
1)!
#15500
0"
1O
#15548
03!
#15550
1"
0O
#15600
0"
1O
#15614
15!
#15650
1"
0O
#15680
0<!
#15700
0"
1O
#15746
1>!
#15750
1"
0O
#15800
0"
1O
#15812
0?!
#15850
1"
0O
#15878
1A!
#15900
0"
1O
#15944
0B!
#15950
1"
0O
#16000
0"
1O
#16010
1D!
#16018
1*!
#16050
1"
0O
#16076
0E!
#16084
14!
#16100
0"
1O
#16142
1R!
#16150
16!
1"
0O
#16200
0"
1O
#16208
0`!
#16216
1=!
#16250
1"
0O
#16274
1b!
#16282
1r!
#16300
0"
1O
#16340
0c!
#16348
1@!
#16350
1"
0O
#16400
0"
1O
#16406
1e!
#16414
1q!
#16450
1"
0O
#16472
0f!
#16480
1C!
#16500
0"
1O
#16538
1g!
#16546
1p!
#16550
1"
0O
#16600
0"
1O
#16604
0i!
#16612
1F!
#16650
1"
0O
#16670
1k!
#16678
1S!
#16700
0"
1O
#16744
1a!
#16750
1"
0O
#16800
0"
1O
#16810
1o!
#16850
1"
0O
#16876
1d!
#16900
0"
1O
#16942
1n!
#16950
1"
0O
#17000
0"
1O
#17008
1m!
#17050
1"
0O
#17074
1h!
#17100
0"
1O
#17140
1j!
#17150
1"
0O
#17200
0"
1O
#17206
1l!
#17250
1"
0O
#17300
0"
1O
#17350
1"
0O
#17400
0"
1O
#17450
1"
0O
#17500
0"
1O
#17550
1"
0O
#17600
0"
1O
#17650
1"
0O
#17700
0"
1O
#17750
1"
0O
#17800
0"
1O
#17850
1"
0O
#17900
0"
1O
#17950
1"
0O
#18000
0"
1O
#18050
1"
0O
#18100
0"
1O
#18150
1"
0O
#18200
0"
1O
#18250
1"
0O
#18300
0"
1O
#18350
1"
0O
#18400
0"
1O
#18450
1"
0O
#18500
0"
1O
#18550
1"
0O
#18600
0"
1O
#18650
1"
0O
#18700
0"
1O
#18750
1"
0O
#18800
0"
1O
#18850
1"
0O
#18900
0"
1O
#18950
1"
0O
#19000
0"
1O
#19050
1"
0O
#19100
0"
1O
#19150
1"
0O
#19200
0"
1O
#19250
1"
0O
#19300
0"
1O
#19350
1"
0O
#19400
0"
1O
#19450
1"
0O
#19500
0"
1O
#19550
1"
0O
#19600
0"
1O
#19650
1"
0O
#19700
0"
1O
#19750
1"
0O
#19800
0"
1O
#19850
1"
0O
#19900
0"
1O
#19950
1"
0O
#20000
1$
0"
1O
#20050
1"
0O
#20100
0"
1O
#20150
1"
0O
#20200
0"
1O
#20250
1"
0O
#20300
0"
1O
#20350
1"
0O
#20400
0"
1O
#20450
1"
0O
#20500
0"
1O
#20550
1"
0O
#20600
0"
1O
#20650
1"
0O
#20700
0"
1O
#20710
1(!
#20750
1"
0O
#20800
0"
1O
#20850
1"
0O
#20900
0"
1O
#20950
1"
0O
#21000
0"
1O
#21050
1"
0O
#21100
0"
1O
#21150
1"
0O
#21200
0"
1O
#21250
1"
0O
#21300
0"
1O
#21350
1"
0O
#21400
0"
1O
#21450
1"
0O
#21500
0"
1O
#21550
1"
0O
#21600
0"
1O
#21650
1"
0O
#21700
0"
1O
#21750
1"
0O
#21800
0"
1O
